X   Y
96, 416
160, 512
192, 144
320, 416
416, 512
512, 512
512, 416
128, 1040
224, 1104
320, 1040
672, 1008
768, 1072
864, 1072
960, 1072
448, 1568
544, 1520
640, 1568
576, 1696
544, 1792
480, 1920

192, 2352
224, 2704
288, 2320
288, 2416
320, 2608
480, 2544
576, 2608
864, 2640
960, 2544
1056, 2448
160, 3360
256, 3264
384, 3136
480, 3136
576, 3136
768, 3232
832, 3136
928, 3136
1056, 3328
416, 3792
512, 3856
608, 3920
768, 4080
864, 3984
960, 3888
1056,4016